{
  "parameters": {
    "endpoint": [
      "BankTransactions",
      "Contacts",
      "Invoices",
      "Journals",
      "Overpayments",
      "Prepayments",
      "PurchaseOrders",
      "TrackingCategories"
    ],
    "auth": {
      "clientId": "",
      "clientSecret": "",
      "redirectUri": "",
      "urlAuthorize": "",
      "urlAccessToken": "",
      "urlResourceOwnerDetails": "",
      "tenantId": "",
      "accessToken": "",
      "refreshToken": ""
    }
  }
}